4y/1s/AAD/proj1AAD/HAD_T1G2/COD/parallel/simulation/qsim/parallel_encoder.msim.vcd
$comment
	File created using the following command:
		vcd file parallel_encoder.msim.vcd -direction
$end
$date
	Sun Nov 13 11:12:32 2022
$end
$version
	ModelSim Version 2020.1
$end
$timescale
	1ps
$end

$scope module parallel_encoder_vhd_vec_tst $end
$var wire 1 ! m [3] $end
$var wire 1 " m [2] $end
$var wire 1 # m [1] $end
$var wire 1 $ m [0] $end
$var wire 1 % x [7] $end
$var wire 1 & x [6] $end
$var wire 1 ' x [5] $end
$var wire 1 ( x [4] $end
$var wire 1 ) x [3] $end
$var wire 1 * x [2] $end
$var wire 1 + x [1] $end
$var wire 1 , x [0] $end

$scope module i1 $end
$var wire 1 - gnd $end
$var wire 1 . vcc $end
$var wire 1 / unknown $end
$var wire 1 0 devoe $end
$var wire 1 1 devclrn $end
$var wire 1 2 devpor $end
$var wire 1 3 ww_devoe $end
$var wire 1 4 ww_devclrn $end
$var wire 1 5 ww_devpor $end
$var wire 1 6 ww_m [3] $end
$var wire 1 7 ww_m [2] $end
$var wire 1 8 ww_m [1] $end
$var wire 1 9 ww_m [0] $end
$var wire 1 : ww_x [7] $end
$var wire 1 ; ww_x [6] $end
$var wire 1 < ww_x [5] $end
$var wire 1 = ww_x [4] $end
$var wire 1 > ww_x [3] $end
$var wire 1 ? ww_x [2] $end
$var wire 1 @ ww_x [1] $end
$var wire 1 A ww_x [0] $end
$var wire 1 B \x[0]~output_o\ $end
$var wire 1 C \x[1]~output_o\ $end
$var wire 1 D \x[2]~output_o\ $end
$var wire 1 E \x[3]~output_o\ $end
$var wire 1 F \x[4]~output_o\ $end
$var wire 1 G \x[5]~output_o\ $end
$var wire 1 H \x[6]~output_o\ $end
$var wire 1 I \x[7]~output_o\ $end
$var wire 1 J \m[3]~input_o\ $end
$var wire 1 K \m[1]~input_o\ $end
$var wire 1 L \m[2]~input_o\ $end
$var wire 1 M \m[0]~input_o\ $end
$var wire 1 N \x7~0_combout\ $end
$var wire 1 O \x6~0_combout\ $end
$var wire 1 P \x5~0_combout\ $end
$var wire 1 Q \x4~0_combout\ $end
$var wire 1 R \x3~0_combout\ $end
$var wire 1 S \x2~0_combout\ $end
$var wire 1 T \x1~0_combout\ $end
$upscope $end
$upscope $end
$enddefinitions $end
#0
$dumpvars
0-
1.
x/
10
11
12
13
14
15
1B
1C
0D
0E
0F
0G
1H
1I
0J
1K
1L
1M
1N
1O
0P
0Q
0R
0S
1T
0!
1"
1#
1$
06
17
18
19
1:
1;
0<
0=
0>
0?
1@
1A
1%
1&
0'
0(
0)
0*
1+
1,
$end
#40000
1!
0"
0$
09
07
16
1J
0L
0M
1Q
0N
1R
0I
0:
1F
0B
1E
0%
1=
0A
1>
0,
1)
1(
#80000
0!
1"
0#
08
17
06
0J
1L
0K
0Q
1S
1N
0T
0H
1B
1G
0E
0;
1A
1<
0>
1,
0)
1'
0&
#120000
1#
1$
19
18
1K
1M
0R
0S
1T
1I
1:
1H
0G
0F
1%
1;
0<
0=
0(
0'
1&
#160000
0$
09
0M
0N
0O
1P
1Q
1R
1S
0T
0I
0:
0H
1G
1F
1E
1D
0C
0B
0%
0;
1<
1=
1>
1?
0@
0A
0,
0+
1*
1)
1(
1'
0&
#200000
0#
08
0K
1N
1O
0P
0Q
0E
0D
1C
1B
0>
0?
1@
1A
1,
1+
0*
0)
#240000
1$
0"
19
07
0L
1M
1P
1Q
1T
1I
1:
1H
1E
1D
1%
1;
1>
1?
1*
1)
1&
#280000
0$
1"
1!
09
17
16
1J
1L
0M
0Q
0N
0R
0I
0:
0F
0B
0E
0%
0=
0A
0>
0,
0)
0(
#320000
0!
1#
18
06
0J
1K
0O
1Q
1R
0T
0H
1F
1E
0C
0;
1=
1>
0@
0+
1)
1(
0&
#360000
1!
0"
07
16
1J
0L
1O
0S
0P
1T
1H
0D
0G
1C
1;
0?
0<
1@
1+
0*
0'
1&
#400000
1"
0#
1$
19
08
17
1L
0K
1M
0T
1N
0O
1I
1:
0C
1B
0H
1%
0@
1A
0;
1,
0+
0&
#440000
1#
0!
18
06
0J
1K
1O
0Q
0R
1T
1H
0F
0E
1C
1;
0=
0>
1@
1+
0)
0(
1&
#480000
0#
08
0K
0N
0O
1P
1Q
1E
1D
0C
0B
1>
1?
0@
0A
0,
0+
1*
1)
#520000
1#
0"
0$
09
18
07
0L
1K
0M
0T
1N
1O
0I
0:
1C
1B
0H
0%
1@
1A
0;
1,
1+
0&
#560000
0#
1"
1$
1!
19
08
17
16
1J
1L
0K
1M
0O
0P
1R
1I
1:
1F
0D
0C
1%
1=
0?
0@
0+
0*
1(
#600000
0"
0!
07
06
0J
0L
1O
1S
1P
1T
1H
1D
1G
1C
1;
1?
1<
1@
1+
1*
1'
1&
#640000
1!
16
1J
0N
0P
0R
0T
0H
0F
0D
0B
0;
0=
0?
0A
0,
0*
0(
0&
#680000
1"
1#
0$
09
18
17
1L
1K
0M
1T
1N
0O
0I
0:
0C
1B
1H
0%
0@
1A
1;
1,
0+
1&
#720000
0"
07
0L
0N
1O
1R
0S
0G
1F
1C
0B
0<
1=
1@
0A
0,
1+
1(
0'
#800000
1"
17
1L
1N
0O
0R
1S
1G
0F
0C
1B
1<
0=
0@
1A
1,
0+
0(
1'
#840000
0#
0!
08
06
0J
0K
1O
0Q
1R
0T
0H
1F
0E
1C
0;
1=
0>
1@
1+
0)
1(
0&
#880000
1#
1$
19
18
1K
1M
0R
0S
1T
1I
1:
1H
0G
0F
1%
1;
0<
0=
0(
0'
1&
#920000
0$
09
0M
0N
0O
1P
1Q
1R
1S
0T
0I
0:
0H
1G
1F
1E
1D
0C
0B
0%
0;
1<
1=
1>
1?
0@
0A
0,
0+
1*
1)
1(
1'
0&
#960000
1$
0#
0"
19
08
07
0L
0K
1M
1T
1N
1O
1I
1:
1C
1B
1H
1%
1@
1A
1;
1,
1+
1&
